{
  "category": "Template Driven Forms", "videos": [
  {
    "title": "Forms", "videoUrl": "https://aws-website-angularorange-wcrwx.s3.amazonaws.com/courses/2023/forms-intro-section1-ppt.mp4"
  },
  {
    "title": "Template Driven", "videoUrl": "https://aws-website-angularorange-wcrwx.s3.amazonaws.com/courses/2023/forms-section2-ppt.mp4"
  },
  {
    "title": "Template Demo", "videoUrl": "https://aws-website-angularorange-wcrwx.s3.amazonaws.com/courses/2023/forms-section2-templatedriven-demo.mp4"
  },
  {
    "title": "Models", "videoUrl": "https://aws-website-angularorange-wcrwx.s3.amazonaws.com/courses/2023/forms-section2-ngmodelgroup-ppt.mp4"
  },
  {
    "title": "Grouping", "videoUrl": "https://aws-website-angularorange-wcrwx.s3.amazonaws.com/courses/2023/forms-section2-ngmodelgroup-demo.mp4"
  },
  {
    "title": "Validation", "videoUrl": "https://aws-website-angularorange-wcrwx.s3.amazonaws.com/courses/2023/forms-section2-validation-demo.mp4"
  },
  {
    "title": "Simple Submit", "videoUrl": "https://aws-website-angularorange-wcrwx.s3.amazonaws.com/courses/2023/forms-section2-simple-demo.mp4"
  }
], "length": "~1.5 hours"
}
