{
  "category": "Dependency Injection", "videos": [
  {
    "title": "Injection", "videoUrl": "https://aws-website-angularorange-wcrwx.s3.amazonaws.com/courses/2023/di-section1-ppt.mp4"
  },
  {
    "title": "User Service", "videoUrl": "https://aws-website-angularorange-wcrwx.s3.amazonaws.com/courses/2023/di-section1-diuser.mp4"
  },
  {
    "title": "Injector types", "videoUrl": "https://aws-website-angularorange-wcrwx.s3.amazonaws.com/courses/2023/di-section2-ppt.mp4"
  },
  {
    "title": "Tree Shaking", "videoUrl": "https://aws-website-angularorange-wcrwx.s3.amazonaws.com/courses/2023/di-section2-diuser-treeshake.mp4"
  },
  {
    "title": "DI Patterns", "videoUrl": "https://aws-website-angularorange-wcrwx.s3.amazonaws.com/courses/2023/di-section3-ppt.mp4"
  },
  {
    "title": "DI Factory", "videoUrl": "https://aws-website-angularorange-wcrwx.s3.amazonaws.com/courses/2023/di-section3-difactory.mp4"
  }
], "length": "~1 hours"
}
