{
  "category": "Introduction",
  "videos": [
    {
      "title": "Introduction",
      "videoUrl": "https://aws-website-angularorange-wcrwx.s3.amazonaws.com/courses/2023/intro-section1-ppt.mp4"
    },
    {
      "title": "Pipes",
      "videoUrl": "https://aws-website-angularorange-wcrwx.s3.amazonaws.com/courses/2023/intro-pipes2023.mp4"
    },
    {
      "title": "Seeder",
      "videoUrl": "https://aws-website-angularorange-wcrwx.s3.amazonaws.com/courses/2023/intro-seeder.mp4"
    },
    {
      "title": "Documentation",
      "videoUrl": "https://aws-website-angularorange-wcrwx.s3.amazonaws.com/courses/2023/intro-docs.mp4"
    },
    {
      "title": "Framework",
      "videoUrl": "https://aws-website-angularorange-wcrwx.s3.amazonaws.com/courses/2023/intro-section2-ppt.mp4"
    },
    {
      "title": "Scaffolding",
      "videoUrl": "https://aws-website-angularorange-wcrwx.s3.amazonaws.com/courses/2023/intro-section3-ppt.mp4"
    },
    {
      "title": "Hello World",
      "videoUrl": "https://aws-website-angularorange-wcrwx.s3.amazonaws.com/courses/2023/intro-section3-helloworld.mp4"
    },
    {
      "title": "Design",
      "videoUrl": "https://aws-website-angularorange-wcrwx.s3.amazonaws.com/courses/2023/intro-section4-ppt.mp4"
    },
    {
      "title": "Basic",
      "videoUrl": "https://aws-website-angularorange-wcrwx.s3.amazonaws.com/courses/2023/intro-section4-basic.mp4"
    },
    {
      "title": "Testing",
      "videoUrl": "https://aws-website-angularorange-wcrwx.s3.amazonaws.com/courses/2023/intro-section4-basic-testing.mp4"
    },
    {
      "title": "ShadowDOM",
      "videoUrl": "https://aws-website-angularorange-wcrwx.s3.amazonaws.com/courses/2023/intro-section5-ppt.mp4"
    },
    {
      "title": "View Encapsulation",
      "videoUrl": "https://aws-website-angularorange-wcrwx.s3.amazonaws.com/courses/2023/intro-section5-shadowdom.mp4"
    },
    {
      "title": "CLI",
      "videoUrl": "https://aws-website-angularorange-wcrwx.s3.amazonaws.com/courses/2023/intro-section6-cli-ppt.mp4"
    },
    {
      "title": "Standalone",
      "videoUrl": "https://aws-website-angularorange-wcrwx.s3.amazonaws.com/courses/2023/cli-standalonedemo2023.mp4"
    },
    {
      "title": "Packages",
      "videoUrl": "https://aws-website-angularorange-wcrwx.s3.amazonaws.com/courses/2023/intro-section7-ppt.mp4"
    }
  ],
  "length": "~6 hours"
}
